{
  "root": "packages/admin",
  "sourceRoot": "packages/admin/src",
  "projectType": "application",
  "targets": {
    "build": {
      "executor": "@nrwl/web:webpack",
      "outputs": ["{options.outputPath}"],
      "defaultConfiguration": "production",
      "options": {
        "compiler": "babel",
        "outputPath": "dist/packages/admin",
        "index": "packages/admin/src/index.html",
        "baseHref": "/",
        "main": "packages/admin/src/main.tsx",
        "polyfills": "packages/admin/src/polyfills.ts",
        "tsConfig": "packages/admin/tsconfig.app.json",
        "assets": [
          "packages/admin/src/favicon.ico",
          "packages/admin/src/assets"
        ],
        "styles": [],
        "scripts": [],
        "webpackConfig": "@nrwl/react/plugins/webpack"
      },
      "configurations": {
        "production": {
          "fileReplacements": [
            {
              "replace": "packages/admin/src/environments/environment.ts",
              "with": "packages/admin/src/environments/environment.prod.ts"
            }
          ],
          "optimization": true,
          "outputHashing": "all",
          "sourceMap": false,
          "namedChunks": false,
          "extractLicenses": true,
          "vendorChunk": false
        }
      }
    },
    "serve": {
      "executor": "@nrwl/web:dev-server",
      "options": {
        "buildTarget": "admin:build",
        "hmr": true
      },
      "configurations": {
        "production": {
          "buildTarget": "admin:build:production",
          "hmr": false
        }
      }
    },
    "lint": {
      "executor": "@nrwl/linter:eslint",
      "outputs": ["{options.outputFile}"],
      "options": {
        "lintFilePatterns": ["packages/admin/**/*.{ts,tsx,js,jsx}"]
      }
    },
    "test": {
      "executor": "@nrwl/jest:jest",
      "outputs": ["coverage/packages/admin"],
      "options": {
        "jestConfig": "packages/admin/jest.config.js",
        "passWithNoTests": true
      }
    }
  },
  "tags": []
}
